^C:\USERS\ADMN2\DOWNLOADS\POPITKA3\POCKETSPHINX\SRC\PROGRAMS\BATCH.C
C:\USERS\ADMN2\DOWNLOADS\POPITKA3\POCKETSPHINX\WIN32\POCKETSPHINX_BATCH\RELEASE\WIN32\VC120.PDB
C:\USERS\ADMN2\DOWNLOADS\POPITKA3\POCKETSPHINX\WIN32\POCKETSPHINX_BATCH\RELEASE\WIN32\BATCH.OBJ
