^C:\USERS\ADMN2\DOWNLOADS\POPITKA3\POCKETSPHINX\SRC\LIBPOCKETSPHINX\ACMOD.C
/c /I../../include /I../../src/libpocketsphinx /I../../../sphinxbase/include /I../../../sphinxbase/include/win32 /ZI /nologo /W3 /WX- /Od /Oy- /D _DEBUG /D _USRDLL /D POCKETSPHINX_EXPORTS /D HAVE_CONFIG_H /D _CRT_SECURE_NO_DEPRECATE /D _WINDLL /D _MBCS /Gm /EHsc /RTC1 /MDd /GS /fp:precise /Zc:wchar_t /Zc:forScope /Fo".\DEBUG\WIN32/" /Fd".\DEBUG\WIN32/VC120.PDB" /Gd /TC /analyze- C:\USERS\ADMN2\DOWNLOADS\POPITKA3\POCKETSPHINX\SRC\LIBPOCKETSPHINX\ACMOD.C
^C:\USERS\ADMN2\DOWNLOADS\POPITKA3\POCKETSPHINX\SRC\LIBPOCKETSPHINX\ALLPHONE_SEARCH.C
/c /I../../include /I../../src/libpocketsphinx /I../../../sphinxbase/include /I../../../sphinxbase/include/win32 /ZI /nologo /W3 /WX- /Od /Oy- /D _DEBUG /D _USRDLL /D POCKETSPHINX_EXPORTS /D HAVE_CONFIG_H /D _CRT_SECURE_NO_DEPRECATE /D _WINDLL /D _MBCS /Gm /EHsc /RTC1 /MDd /GS /fp:precise /Zc:wchar_t /Zc:forScope /Fo".\DEBUG\WIN32/" /Fd".\DEBUG\WIN32/VC120.PDB" /Gd /TC /analyze- C:\USERS\ADMN2\DOWNLOADS\POPITKA3\POCKETSPHINX\SRC\LIBPOCKETSPHINX\ALLPHONE_SEARCH.C
^C:\USERS\ADMN2\DOWNLOADS\POPITKA3\POCKETSPHINX\SRC\LIBPOCKETSPHINX\BIN_MDEF.C
/c /I../../include /I../../src/libpocketsphinx /I../../../sphinxbase/include /I../../../sphinxbase/include/win32 /ZI /nologo /W3 /WX- /Od /Oy- /D _DEBUG /D _USRDLL /D POCKETSPHINX_EXPORTS /D HAVE_CONFIG_H /D _CRT_SECURE_NO_DEPRECATE /D _WINDLL /D _MBCS /Gm /EHsc /RTC1 /MDd /GS /fp:precise /Zc:wchar_t /Zc:forScope /Fo".\DEBUG\WIN32/" /Fd".\DEBUG\WIN32/VC120.PDB" /Gd /TC /analyze- C:\USERS\ADMN2\DOWNLOADS\POPITKA3\POCKETSPHINX\SRC\LIBPOCKETSPHINX\BIN_MDEF.C
^C:\USERS\ADMN2\DOWNLOADS\POPITKA3\POCKETSPHINX\SRC\LIBPOCKETSPHINX\BLKARRAY_LIST.C
/c /I../../include /I../../src/libpocketsphinx /I../../../sphinxbase/include /I../../../sphinxbase/include/win32 /ZI /nologo /W3 /WX- /Od /Oy- /D _DEBUG /D _USRDLL /D POCKETSPHINX_EXPORTS /D HAVE_CONFIG_H /D _CRT_SECURE_NO_DEPRECATE /D _WINDLL /D _MBCS /Gm /EHsc /RTC1 /MDd /GS /fp:precise /Zc:wchar_t /Zc:forScope /Fo".\DEBUG\WIN32/" /Fd".\DEBUG\WIN32/VC120.PDB" /Gd /TC /analyze- C:\USERS\ADMN2\DOWNLOADS\POPITKA3\POCKETSPHINX\SRC\LIBPOCKETSPHINX\BLKARRAY_LIST.C
^C:\USERS\ADMN2\DOWNLOADS\POPITKA3\POCKETSPHINX\SRC\LIBPOCKETSPHINX\DICT.C
/c /I../../include /I../../src/libpocketsphinx /I../../../sphinxbase/include /I../../../sphinxbase/include/win32 /ZI /nologo /W3 /WX- /Od /Oy- /D _DEBUG /D _USRDLL /D POCKETSPHINX_EXPORTS /D HAVE_CONFIG_H /D _CRT_SECURE_NO_DEPRECATE /D _WINDLL /D _MBCS /Gm /EHsc /RTC1 /MDd /GS /fp:precise /Zc:wchar_t /Zc:forScope /Fo".\DEBUG\WIN32/" /Fd".\DEBUG\WIN32/VC120.PDB" /Gd /TC /analyze- C:\USERS\ADMN2\DOWNLOADS\POPITKA3\POCKETSPHINX\SRC\LIBPOCKETSPHINX\DICT.C
^C:\USERS\ADMN2\DOWNLOADS\POPITKA3\POCKETSPHINX\SRC\LIBPOCKETSPHINX\DICT2PID.C
/c /I../../include /I../../src/libpocketsphinx /I../../../sphinxbase/include /I../../../sphinxbase/include/win32 /ZI /nologo /W3 /WX- /Od /Oy- /D _DEBUG /D _USRDLL /D POCKETSPHINX_EXPORTS /D HAVE_CONFIG_H /D _CRT_SECURE_NO_DEPRECATE /D _WINDLL /D _MBCS /Gm /EHsc /RTC1 /MDd /GS /fp:precise /Zc:wchar_t /Zc:forScope /Fo".\DEBUG\WIN32/" /Fd".\DEBUG\WIN32/VC120.PDB" /Gd /TC /analyze- C:\USERS\ADMN2\DOWNLOADS\POPITKA3\POCKETSPHINX\SRC\LIBPOCKETSPHINX\DICT2PID.C
^C:\USERS\ADMN2\DOWNLOADS\POPITKA3\POCKETSPHINX\SRC\LIBPOCKETSPHINX\FSG_HISTORY.C
/c /I../../include /I../../src/libpocketsphinx /I../../../sphinxbase/include /I../../../sphinxbase/include/win32 /ZI /nologo /W3 /WX- /Od /Oy- /D _DEBUG /D _USRDLL /D POCKETSPHINX_EXPORTS /D HAVE_CONFIG_H /D _CRT_SECURE_NO_DEPRECATE /D _WINDLL /D _MBCS /Gm /EHsc /RTC1 /MDd /GS /fp:precise /Zc:wchar_t /Zc:forScope /Fo".\DEBUG\WIN32/" /Fd".\DEBUG\WIN32/VC120.PDB" /Gd /TC /analyze- C:\USERS\ADMN2\DOWNLOADS\POPITKA3\POCKETSPHINX\SRC\LIBPOCKETSPHINX\FSG_HISTORY.C
^C:\USERS\ADMN2\DOWNLOADS\POPITKA3\POCKETSPHINX\SRC\LIBPOCKETSPHINX\FSG_LEXTREE.C
/c /I../../include /I../../src/libpocketsphinx /I../../../sphinxbase/include /I../../../sphinxbase/include/win32 /ZI /nologo /W3 /WX- /Od /Oy- /D _DEBUG /D _USRDLL /D POCKETSPHINX_EXPORTS /D HAVE_CONFIG_H /D _CRT_SECURE_NO_DEPRECATE /D _WINDLL /D _MBCS /Gm /EHsc /RTC1 /MDd /GS /fp:precise /Zc:wchar_t /Zc:forScope /Fo".\DEBUG\WIN32/" /Fd".\DEBUG\WIN32/VC120.PDB" /Gd /TC /analyze- C:\USERS\ADMN2\DOWNLOADS\POPITKA3\POCKETSPHINX\SRC\LIBPOCKETSPHINX\FSG_LEXTREE.C
^C:\USERS\ADMN2\DOWNLOADS\POPITKA3\POCKETSPHINX\SRC\LIBPOCKETSPHINX\FSG_SEARCH.C
/c /I../../include /I../../src/libpocketsphinx /I../../../sphinxbase/include /I../../../sphinxbase/include/win32 /ZI /nologo /W3 /WX- /Od /Oy- /D _DEBUG /D _USRDLL /D POCKETSPHINX_EXPORTS /D HAVE_CONFIG_H /D _CRT_SECURE_NO_DEPRECATE /D _WINDLL /D _MBCS /Gm /EHsc /RTC1 /MDd /GS /fp:precise /Zc:wchar_t /Zc:forScope /Fo".\DEBUG\WIN32/" /Fd".\DEBUG\WIN32/VC120.PDB" /Gd /TC /analyze- C:\USERS\ADMN2\DOWNLOADS\POPITKA3\POCKETSPHINX\SRC\LIBPOCKETSPHINX\FSG_SEARCH.C
^C:\USERS\ADMN2\DOWNLOADS\POPITKA3\POCKETSPHINX\SRC\LIBPOCKETSPHINX\HMM.C
/c /I../../include /I../../src/libpocketsphinx /I../../../sphinxbase/include /I../../../sphinxbase/include/win32 /ZI /nologo /W3 /WX- /Od /Oy- /D _DEBUG /D _USRDLL /D POCKETSPHINX_EXPORTS /D HAVE_CONFIG_H /D _CRT_SECURE_NO_DEPRECATE /D _WINDLL /D _MBCS /Gm /EHsc /RTC1 /MDd /GS /fp:precise /Zc:wchar_t /Zc:forScope /Fo".\DEBUG\WIN32/" /Fd".\DEBUG\WIN32/VC120.PDB" /Gd /TC /analyze- C:\USERS\ADMN2\DOWNLOADS\POPITKA3\POCKETSPHINX\SRC\LIBPOCKETSPHINX\HMM.C
^C:\USERS\ADMN2\DOWNLOADS\POPITKA3\POCKETSPHINX\SRC\LIBPOCKETSPHINX\KWS_DETECTIONS.C
/c /I../../include /I../../src/libpocketsphinx /I../../../sphinxbase/include /I../../../sphinxbase/include/win32 /ZI /nologo /W3 /WX- /Od /Oy- /D _DEBUG /D _USRDLL /D POCKETSPHINX_EXPORTS /D HAVE_CONFIG_H /D _CRT_SECURE_NO_DEPRECATE /D _WINDLL /D _MBCS /Gm /EHsc /RTC1 /MDd /GS /fp:precise /Zc:wchar_t /Zc:forScope /Fo".\DEBUG\WIN32/" /Fd".\DEBUG\WIN32/VC120.PDB" /Gd /TC /analyze- C:\USERS\ADMN2\DOWNLOADS\POPITKA3\POCKETSPHINX\SRC\LIBPOCKETSPHINX\KWS_DETECTIONS.C
^C:\USERS\ADMN2\DOWNLOADS\POPITKA3\POCKETSPHINX\SRC\LIBPOCKETSPHINX\KWS_SEARCH.C
/c /I../../include /I../../src/libpocketsphinx /I../../../sphinxbase/include /I../../../sphinxbase/include/win32 /ZI /nologo /W3 /WX- /Od /Oy- /D _DEBUG /D _USRDLL /D POCKETSPHINX_EXPORTS /D HAVE_CONFIG_H /D _CRT_SECURE_NO_DEPRECATE /D _WINDLL /D _MBCS /Gm /EHsc /RTC1 /MDd /GS /fp:precise /Zc:wchar_t /Zc:forScope /Fo".\DEBUG\WIN32/" /Fd".\DEBUG\WIN32/VC120.PDB" /Gd /TC /analyze- C:\USERS\ADMN2\DOWNLOADS\POPITKA3\POCKETSPHINX\SRC\LIBPOCKETSPHINX\KWS_SEARCH.C
^C:\USERS\ADMN2\DOWNLOADS\POPITKA3\POCKETSPHINX\SRC\LIBPOCKETSPHINX\MDEF.C
/c /I../../include /I../../src/libpocketsphinx /I../../../sphinxbase/include /I../../../sphinxbase/include/win32 /ZI /nologo /W3 /WX- /Od /Oy- /D _DEBUG /D _USRDLL /D POCKETSPHINX_EXPORTS /D HAVE_CONFIG_H /D _CRT_SECURE_NO_DEPRECATE /D _WINDLL /D _MBCS /Gm /EHsc /RTC1 /MDd /GS /fp:precise /Zc:wchar_t /Zc:forScope /Fo".\DEBUG\WIN32/" /Fd".\DEBUG\WIN32/VC120.PDB" /Gd /TC /analyze- C:\USERS\ADMN2\DOWNLOADS\POPITKA3\POCKETSPHINX\SRC\LIBPOCKETSPHINX\MDEF.C
^C:\USERS\ADMN2\DOWNLOADS\POPITKA3\POCKETSPHINX\SRC\LIBPOCKETSPHINX\MS_GAUDEN.C
/c /I../../include /I../../src/libpocketsphinx /I../../../sphinxbase/include /I../../../sphinxbase/include/win32 /ZI /nologo /W3 /WX- /Od /Oy- /D _DEBUG /D _USRDLL /D POCKETSPHINX_EXPORTS /D HAVE_CONFIG_H /D _CRT_SECURE_NO_DEPRECATE /D _WINDLL /D _MBCS /Gm /EHsc /RTC1 /MDd /GS /fp:precise /Zc:wchar_t /Zc:forScope /Fo".\DEBUG\WIN32/" /Fd".\DEBUG\WIN32/VC120.PDB" /Gd /TC /analyze- C:\USERS\ADMN2\DOWNLOADS\POPITKA3\POCKETSPHINX\SRC\LIBPOCKETSPHINX\MS_GAUDEN.C
^C:\USERS\ADMN2\DOWNLOADS\POPITKA3\POCKETSPHINX\SRC\LIBPOCKETSPHINX\MS_MGAU.C
/c /I../../include /I../../src/libpocketsphinx /I../../../sphinxbase/include /I../../../sphinxbase/include/win32 /ZI /nologo /W3 /WX- /Od /Oy- /D _DEBUG /D _USRDLL /D POCKETSPHINX_EXPORTS /D HAVE_CONFIG_H /D _CRT_SECURE_NO_DEPRECATE /D _WINDLL /D _MBCS /Gm /EHsc /RTC1 /MDd /GS /fp:precise /Zc:wchar_t /Zc:forScope /Fo".\DEBUG\WIN32/" /Fd".\DEBUG\WIN32/VC120.PDB" /Gd /TC /analyze- C:\USERS\ADMN2\DOWNLOADS\POPITKA3\POCKETSPHINX\SRC\LIBPOCKETSPHINX\MS_MGAU.C
^C:\USERS\ADMN2\DOWNLOADS\POPITKA3\POCKETSPHINX\SRC\LIBPOCKETSPHINX\MS_SENONE.C
/c /I../../include /I../../src/libpocketsphinx /I../../../sphinxbase/include /I../../../sphinxbase/include/win32 /ZI /nologo /W3 /WX- /Od /Oy- /D _DEBUG /D _USRDLL /D POCKETSPHINX_EXPORTS /D HAVE_CONFIG_H /D _CRT_SECURE_NO_DEPRECATE /D _WINDLL /D _MBCS /Gm /EHsc /RTC1 /MDd /GS /fp:precise /Zc:wchar_t /Zc:forScope /Fo".\DEBUG\WIN32/" /Fd".\DEBUG\WIN32/VC120.PDB" /Gd /TC /analyze- C:\USERS\ADMN2\DOWNLOADS\POPITKA3\POCKETSPHINX\SRC\LIBPOCKETSPHINX\MS_SENONE.C
^C:\USERS\ADMN2\DOWNLOADS\POPITKA3\POCKETSPHINX\SRC\LIBPOCKETSPHINX\NGRAM_SEARCH.C
/c /I../../include /I../../src/libpocketsphinx /I../../../sphinxbase/include /I../../../sphinxbase/include/win32 /ZI /nologo /W3 /WX- /Od /Oy- /D _DEBUG /D _USRDLL /D POCKETSPHINX_EXPORTS /D HAVE_CONFIG_H /D _CRT_SECURE_NO_DEPRECATE /D _WINDLL /D _MBCS /Gm /EHsc /RTC1 /MDd /GS /fp:precise /Zc:wchar_t /Zc:forScope /Fo".\DEBUG\WIN32/" /Fd".\DEBUG\WIN32/VC120.PDB" /Gd /TC /analyze- C:\USERS\ADMN2\DOWNLOADS\POPITKA3\POCKETSPHINX\SRC\LIBPOCKETSPHINX\NGRAM_SEARCH.C
^C:\USERS\ADMN2\DOWNLOADS\POPITKA3\POCKETSPHINX\SRC\LIBPOCKETSPHINX\NGRAM_SEARCH_FWDFLAT.C
/c /I../../include /I../../src/libpocketsphinx /I../../../sphinxbase/include /I../../../sphinxbase/include/win32 /ZI /nologo /W3 /WX- /Od /Oy- /D _DEBUG /D _USRDLL /D POCKETSPHINX_EXPORTS /D HAVE_CONFIG_H /D _CRT_SECURE_NO_DEPRECATE /D _WINDLL /D _MBCS /Gm /EHsc /RTC1 /MDd /GS /fp:precise /Zc:wchar_t /Zc:forScope /Fo".\DEBUG\WIN32/" /Fd".\DEBUG\WIN32/VC120.PDB" /Gd /TC /analyze- C:\USERS\ADMN2\DOWNLOADS\POPITKA3\POCKETSPHINX\SRC\LIBPOCKETSPHINX\NGRAM_SEARCH_FWDFLAT.C
^C:\USERS\ADMN2\DOWNLOADS\POPITKA3\POCKETSPHINX\SRC\LIBPOCKETSPHINX\NGRAM_SEARCH_FWDTREE.C
/c /I../../include /I../../src/libpocketsphinx /I../../../sphinxbase/include /I../../../sphinxbase/include/win32 /ZI /nologo /W3 /WX- /Od /Oy- /D _DEBUG /D _USRDLL /D POCKETSPHINX_EXPORTS /D HAVE_CONFIG_H /D _CRT_SECURE_NO_DEPRECATE /D _WINDLL /D _MBCS /Gm /EHsc /RTC1 /MDd /GS /fp:precise /Zc:wchar_t /Zc:forScope /Fo".\DEBUG\WIN32/" /Fd".\DEBUG\WIN32/VC120.PDB" /Gd /TC /analyze- C:\USERS\ADMN2\DOWNLOADS\POPITKA3\POCKETSPHINX\SRC\LIBPOCKETSPHINX\NGRAM_SEARCH_FWDTREE.C
^C:\USERS\ADMN2\DOWNLOADS\POPITKA3\POCKETSPHINX\SRC\LIBPOCKETSPHINX\PHONE_LOOP_SEARCH.C
/c /I../../include /I../../src/libpocketsphinx /I../../../sphinxbase/include /I../../../sphinxbase/include/win32 /ZI /nologo /W3 /WX- /Od /Oy- /D _DEBUG /D _USRDLL /D POCKETSPHINX_EXPORTS /D HAVE_CONFIG_H /D _CRT_SECURE_NO_DEPRECATE /D _WINDLL /D _MBCS /Gm /EHsc /RTC1 /MDd /GS /fp:precise /Zc:wchar_t /Zc:forScope /Fo".\DEBUG\WIN32/" /Fd".\DEBUG\WIN32/VC120.PDB" /Gd /TC /analyze- C:\USERS\ADMN2\DOWNLOADS\POPITKA3\POCKETSPHINX\SRC\LIBPOCKETSPHINX\PHONE_LOOP_SEARCH.C
^C:\USERS\ADMN2\DOWNLOADS\POPITKA3\POCKETSPHINX\SRC\LIBPOCKETSPHINX\POCKETSPHINX.C
/c /I../../include /I../../src/libpocketsphinx /I../../../sphinxbase/include /I../../../sphinxbase/include/win32 /ZI /nologo /W3 /WX- /Od /Oy- /D _DEBUG /D _USRDLL /D POCKETSPHINX_EXPORTS /D HAVE_CONFIG_H /D _CRT_SECURE_NO_DEPRECATE /D _WINDLL /D _MBCS /Gm /EHsc /RTC1 /MDd /GS /fp:precise /Zc:wchar_t /Zc:forScope /Fo".\DEBUG\WIN32/" /Fd".\DEBUG\WIN32/VC120.PDB" /Gd /TC /analyze- C:\USERS\ADMN2\DOWNLOADS\POPITKA3\POCKETSPHINX\SRC\LIBPOCKETSPHINX\POCKETSPHINX.C
^C:\USERS\ADMN2\DOWNLOADS\POPITKA3\POCKETSPHINX\SRC\LIBPOCKETSPHINX\PS_LATTICE.C
/c /I../../include /I../../src/libpocketsphinx /I../../../sphinxbase/include /I../../../sphinxbase/include/win32 /ZI /nologo /W3 /WX- /Od /Oy- /D _DEBUG /D _USRDLL /D POCKETSPHINX_EXPORTS /D HAVE_CONFIG_H /D _CRT_SECURE_NO_DEPRECATE /D _WINDLL /D _MBCS /Gm /EHsc /RTC1 /MDd /GS /fp:precise /Zc:wchar_t /Zc:forScope /Fo".\DEBUG\WIN32/" /Fd".\DEBUG\WIN32/VC120.PDB" /Gd /TC /analyze- C:\USERS\ADMN2\DOWNLOADS\POPITKA3\POCKETSPHINX\SRC\LIBPOCKETSPHINX\PS_LATTICE.C
^C:\USERS\ADMN2\DOWNLOADS\POPITKA3\POCKETSPHINX\SRC\LIBPOCKETSPHINX\PS_MLLR.C
/c /I../../include /I../../src/libpocketsphinx /I../../../sphinxbase/include /I../../../sphinxbase/include/win32 /ZI /nologo /W3 /WX- /Od /Oy- /D _DEBUG /D _USRDLL /D POCKETSPHINX_EXPORTS /D HAVE_CONFIG_H /D _CRT_SECURE_NO_DEPRECATE /D _WINDLL /D _MBCS /Gm /EHsc /RTC1 /MDd /GS /fp:precise /Zc:wchar_t /Zc:forScope /Fo".\DEBUG\WIN32/" /Fd".\DEBUG\WIN32/VC120.PDB" /Gd /TC /analyze- C:\USERS\ADMN2\DOWNLOADS\POPITKA3\POCKETSPHINX\SRC\LIBPOCKETSPHINX\PS_MLLR.C
^C:\USERS\ADMN2\DOWNLOADS\POPITKA3\POCKETSPHINX\SRC\LIBPOCKETSPHINX\PTM_MGAU.C
/c /I../../include /I../../src/libpocketsphinx /I../../../sphinxbase/include /I../../../sphinxbase/include/win32 /ZI /nologo /W3 /WX- /Od /Oy- /D _DEBUG /D _USRDLL /D POCKETSPHINX_EXPORTS /D HAVE_CONFIG_H /D _CRT_SECURE_NO_DEPRECATE /D _WINDLL /D _MBCS /Gm /EHsc /RTC1 /MDd /GS /fp:precise /Zc:wchar_t /Zc:forScope /Fo".\DEBUG\WIN32/" /Fd".\DEBUG\WIN32/VC120.PDB" /Gd /TC /analyze- C:\USERS\ADMN2\DOWNLOADS\POPITKA3\POCKETSPHINX\SRC\LIBPOCKETSPHINX\PTM_MGAU.C
^C:\USERS\ADMN2\DOWNLOADS\POPITKA3\POCKETSPHINX\SRC\LIBPOCKETSPHINX\S2_SEMI_MGAU.C
/c /I../../include /I../../src/libpocketsphinx /I../../../sphinxbase/include /I../../../sphinxbase/include/win32 /ZI /nologo /W3 /WX- /Od /Oy- /D _DEBUG /D _USRDLL /D POCKETSPHINX_EXPORTS /D HAVE_CONFIG_H /D _CRT_SECURE_NO_DEPRECATE /D _WINDLL /D _MBCS /Gm /EHsc /RTC1 /MDd /GS /fp:precise /Zc:wchar_t /Zc:forScope /Fo".\DEBUG\WIN32/" /Fd".\DEBUG\WIN32/VC120.PDB" /Gd /TC /analyze- C:\USERS\ADMN2\DOWNLOADS\POPITKA3\POCKETSPHINX\SRC\LIBPOCKETSPHINX\S2_SEMI_MGAU.C
^C:\USERS\ADMN2\DOWNLOADS\POPITKA3\POCKETSPHINX\SRC\LIBPOCKETSPHINX\TMAT.C
/c /I../../include /I../../src/libpocketsphinx /I../../../sphinxbase/include /I../../../sphinxbase/include/win32 /ZI /nologo /W3 /WX- /Od /Oy- /D _DEBUG /D _USRDLL /D POCKETSPHINX_EXPORTS /D HAVE_CONFIG_H /D _CRT_SECURE_NO_DEPRECATE /D _WINDLL /D _MBCS /Gm /EHsc /RTC1 /MDd /GS /fp:precise /Zc:wchar_t /Zc:forScope /Fo".\DEBUG\WIN32/" /Fd".\DEBUG\WIN32/VC120.PDB" /Gd /TC /analyze- C:\USERS\ADMN2\DOWNLOADS\POPITKA3\POCKETSPHINX\SRC\LIBPOCKETSPHINX\TMAT.C
^C:\USERS\ADMN2\DOWNLOADS\POPITKA3\POCKETSPHINX\SRC\LIBPOCKETSPHINX\VECTOR.C
/c /I../../include /I../../src/libpocketsphinx /I../../../sphinxbase/include /I../../../sphinxbase/include/win32 /ZI /nologo /W3 /WX- /Od /Oy- /D _DEBUG /D _USRDLL /D POCKETSPHINX_EXPORTS /D HAVE_CONFIG_H /D _CRT_SECURE_NO_DEPRECATE /D _WINDLL /D _MBCS /Gm /EHsc /RTC1 /MDd /GS /fp:precise /Zc:wchar_t /Zc:forScope /Fo".\DEBUG\WIN32/" /Fd".\DEBUG\WIN32/VC120.PDB" /Gd /TC /analyze- C:\USERS\ADMN2\DOWNLOADS\POPITKA3\POCKETSPHINX\SRC\LIBPOCKETSPHINX\VECTOR.C
